%YAML 1.1
%TAG !u! tag:unity3d.com,2011:
--- !u!29 &1
OcclusionCullingSettings:
  m_ObjectHideFlags: 0
  serializedVersion: 2
  m_OcclusionBakeSettings:
    smallestOccluder: 5
    smallestHole: 0.25
    backfaceThreshold: 100
  m_SceneGUID: 00000000000000000000000000000000
  m_OcclusionCullingData: {fileID: 0}
--- !u!104 &2
RenderSettings:
  m_ObjectHideFlags: 0
  serializedVersion: 9
  m_Fog: 0
  m_FogColor: {r: 0.5, g: 0.5, b: 0.5, a: 1}
  m_FogMode: 3
  m_FogDensity: 0.01
  m_LinearFogStart: 0
  m_LinearFogEnd: 300
  m_AmbientSkyColor: {r: 0.212, g: 0.227, b: 0.259, a: 1}
  m_AmbientEquatorColor: {r: 0.114, g: 0.125, b: 0.133, a: 1}
  m_AmbientGroundColor: {r: 0.047, g: 0.043, b: 0.035, a: 1}
  m_AmbientIntensity: 1
  m_AmbientMode: 3
  m_SubtractiveShadowColor: {r: 0.42, g: 0.478, b: 0.627, a: 1}
  m_SkyboxMaterial: {fileID: 0}
  m_HaloStrength: 0.5
  m_FlareStrength: 1
  m_FlareFadeSpeed: 3
  m_HaloTexture: {fileID: 0}
  m_SpotCookie: {fileID: 10001, guid: 0000000000000000e000000000000000, type: 0}
  m_DefaultReflectionMode: 0
  m_DefaultReflectionResolution: 128
  m_ReflectionBounces: 1
  m_ReflectionIntensity: 1
  m_CustomReflection: {fileID: 0}
  m_Sun: {fileID: 0}
  m_IndirectSpecularColor: {r: 0, g: 0, b: 0, a: 1}
  m_UseRadianceAmbientProbe: 0
--- !u!157 &3
LightmapSettings:
  m_ObjectHideFlags: 0
  serializedVersion: 12
  m_GIWorkflowMode: 1
  m_GISettings:
    serializedVersion: 2
    m_BounceScale: 1
    m_IndirectOutputScale: 1
    m_AlbedoBoost: 1
    m_EnvironmentLightingMode: 0
    m_EnableBakedLightmaps: 0
    m_EnableRealtimeLightmaps: 0
  m_LightmapEditorSettings:
    serializedVersion: 12
    m_Resolution: 2
    m_BakeResolution: 40
    m_AtlasSize: 1024
    m_AO: 0
    m_AOMaxDistance: 1
    m_CompAOExponent: 1
    m_CompAOExponentDirect: 0
    m_ExtractAmbientOcclusion: 0
    m_Padding: 2
    m_LightmapParameters: {fileID: 0}
    m_LightmapsBakeMode: 1
    m_TextureCompression: 1
    m_FinalGather: 0
    m_FinalGatherFiltering: 1
    m_FinalGatherRayCount: 256
    m_ReflectionCompression: 2
    m_MixedBakeMode: 2
    m_BakeBackend: 0
    m_PVRSampling: 1
    m_PVRDirectSampleCount: 32
    m_PVRSampleCount: 500
    m_PVRBounces: 2
    m_PVREnvironmentSampleCount: 500
    m_PVREnvironmentReferencePointCount: 2048
    m_PVRFilteringMode: 2
    m_PVRDenoiserTypeDirect: 0
    m_PVRDenoiserTypeIndirect: 0
    m_PVRDenoiserTypeAO: 0
    m_PVRFilterTypeDirect: 0
    m_PVRFilterTypeIndirect: 0
    m_PVRFilterTypeAO: 0
    m_PVREnvironmentMIS: 0
    m_PVRCulling: 1
    m_PVRFilteringGaussRadiusDirect: 1
    m_PVRFilteringGaussRadiusIndirect: 5
    m_PVRFilteringGaussRadiusAO: 2
    m_PVRFilteringAtrousPositionSigmaDirect: 0.5
    m_PVRFilteringAtrousPositionSigmaIndirect: 2
    m_PVRFilteringAtrousPositionSigmaAO: 1
    m_ExportTrainingData: 0
    m_TrainingDataDestination: TrainingData
    m_LightProbeSampleCountMultiplier: 4
  m_LightingDataAsset: {fileID: 0}
  m_LightingSettings: {fileID: 0}
--- !u!196 &4
NavMeshSettings:
  serializedVersion: 2
  m_ObjectHideFlags: 0
  m_BuildSettings:
    serializedVersion: 2
    agentTypeID: 0
    agentRadius: 0.5
    agentHeight: 2
    agentSlope: 45
    agentClimb: 0.4
    ledgeDropHeight: 0
    maxJumpAcrossDistance: 0
    minRegionArea: 2
    manualCellSize: 0
    cellSize: 0.16666667
    manualTileSize: 0
    tileSize: 256
    accuratePlacement: 0
    maxJobWorkers: 0
    preserveTilesOutsideBounds: 0
    debug:
      m_Flags: 0
  m_NavMeshData: {fileID: 0}
--- !u!114 &590873985 stripped
MonoBehaviour:
  m_CorrespondingSourceObject: {fileID: 8986734293453646362, guid: 3c653587b3823184e8a3c3b5a825c05f, type: 3}
  m_PrefabInstance: {fileID: 8726486756712180440}
  m_PrefabAsset: {fileID: 0}
  m_GameObject: {fileID: 0}
  m_Enabled: 1
  m_EditorHideFlags: 0
  m_Script: {fileID: 11500000, guid: 738a446abbf61294088444587bc19df8, type: 3}
  m_Name: 
  m_EditorClassIdentifier: 
--- !u!1 &925462080
GameObject:
  m_ObjectHideFlags: 0
  m_CorrespondingSourceObject: {fileID: 0}
  m_PrefabInstance: {fileID: 0}
  m_PrefabAsset: {fileID: 0}
  serializedVersion: 6
  m_Component:
  - component: {fileID: 925462083}
  - component: {fileID: 925462082}
  - component: {fileID: 925462081}
  m_Layer: 0
  m_Name: EventSystem
  m_TagString: Untagged
  m_Icon: {fileID: 0}
  m_NavMeshLayer: 0
  m_StaticEditorFlags: 0
  m_IsActive: 1
--- !u!114 &925462081
MonoBehaviour:
  m_ObjectHideFlags: 0
  m_CorrespondingSourceObject: {fileID: 0}
  m_PrefabInstance: {fileID: 0}
  m_PrefabAsset: {fileID: 0}
  m_GameObject: {fileID: 925462080}
  m_Enabled: 1
  m_EditorHideFlags: 0
  m_Script: {fileID: 11500000, guid: 01614664b831546d2ae94a42149d80ac, type: 3}
  m_Name: 
  m_EditorClassIdentifier: 
  m_MoveRepeatDelay: 0.5
  m_MoveRepeatRate: 0.1
  m_XRTrackingOrigin: {fileID: 0}
  m_ActionsAsset: {fileID: -944628639613478452, guid: ca9f5fa95ffab41fb9a615ab714db018, type: 3}
  m_PointAction: {fileID: -1654692200621890270, guid: ca9f5fa95ffab41fb9a615ab714db018, type: 3}
  m_MoveAction: {fileID: -8784545083839296357, guid: ca9f5fa95ffab41fb9a615ab714db018, type: 3}
  m_SubmitAction: {fileID: 392368643174621059, guid: ca9f5fa95ffab41fb9a615ab714db018, type: 3}
  m_CancelAction: {fileID: 7727032971491509709, guid: ca9f5fa95ffab41fb9a615ab714db018, type: 3}
  m_LeftClickAction: {fileID: 3001919216989983466, guid: ca9f5fa95ffab41fb9a615ab714db018, type: 3}
  m_MiddleClickAction: {fileID: -2185481485913320682, guid: ca9f5fa95ffab41fb9a615ab714db018, type: 3}
  m_RightClickAction: {fileID: -4090225696740746782, guid: ca9f5fa95ffab41fb9a615ab714db018, type: 3}
  m_ScrollWheelAction: {fileID: 6240969308177333660, guid: ca9f5fa95ffab41fb9a615ab714db018, type: 3}
  m_TrackedDevicePositionAction: {fileID: 6564999863303420839, guid: ca9f5fa95ffab41fb9a615ab714db018, type: 3}
  m_TrackedDeviceOrientationAction: {fileID: 7970375526676320489, guid: ca9f5fa95ffab41fb9a615ab714db018, type: 3}
  m_DeselectOnBackgroundClick: 1
  m_PointerBehavior: 0
--- !u!114 &925462082
MonoBehaviour:
  m_ObjectHideFlags: 0
  m_CorrespondingSourceObject: {fileID: 0}
  m_PrefabInstance: {fileID: 0}
  m_PrefabAsset: {fileID: 0}
  m_GameObject: {fileID: 925462080}
  m_Enabled: 1
  m_EditorHideFlags: 0
  m_Script: {fileID: 11500000, guid: 76c392e42b5098c458856cdf6ecaaaa1, type: 3}
  m_Name: 
  m_EditorClassIdentifier: 
  m_FirstSelected: {fileID: 0}
  m_sendNavigationEvents: 1
  m_DragThreshold: 10
--- !u!4 &925462083
Transform:
  m_ObjectHideFlags: 0
  m_CorrespondingSourceObject: {fileID: 0}
  m_PrefabInstance: {fileID: 0}
  m_PrefabAsset: {fileID: 0}
  m_GameObject: {fileID: 925462080}
  m_LocalRotation: {x: 0, y: 0, z: 0, w: 1}
  m_LocalPosition: {x: 0, y: 0, z: 0}
  m_LocalScale: {x: 1, y: 1, z: 1}
  m_Children: []
  m_Father: {fileID: 0}
  m_RootOrder: 2
  m_LocalEulerAnglesHint: {x: 0, y: 0, z: 0}
--- !u!1001 &8444651140025036454
PrefabInstance:
  m_ObjectHideFlags: 0
  serializedVersion: 2
  m_Modification:
    m_TransformParent: {fileID: 0}
    m_Modifications:
    - target: {fileID: 4433571547551974764, guid: 9d68dbd8f32197241aed06270e7de7b8, type: 3}
      propertyPath: m_Name
      value: GameManager
      objectReference: {fileID: 0}
    - target: {fileID: 5900813902151451995, guid: 9d68dbd8f32197241aed06270e7de7b8, type: 3}
      propertyPath: m_RootOrder
      value: 0
      objectReference: {fileID: 0}
    - target: {fileID: 5900813902151451995, guid: 9d68dbd8f32197241aed06270e7de7b8, type: 3}
      propertyPath: m_LocalPosition.x
      value: 0
      objectReference: {fileID: 0}
    - target: {fileID: 5900813902151451995, guid: 9d68dbd8f32197241aed06270e7de7b8, type: 3}
      propertyPath: m_LocalPosition.y
      value: 0
      objectReference: {fileID: 0}
    - target: {fileID: 5900813902151451995, guid: 9d68dbd8f32197241aed06270e7de7b8, type: 3}
      propertyPath: m_LocalPosition.z
      value: 0
      objectReference: {fileID: 0}
    - target: {fileID: 5900813902151451995, guid: 9d68dbd8f32197241aed06270e7de7b8, type: 3}
      propertyPath: m_LocalRotation.w
      value: 1
      objectReference: {fileID: 0}
    - target: {fileID: 5900813902151451995, guid: 9d68dbd8f32197241aed06270e7de7b8, type: 3}
      propertyPath: m_LocalRotation.x
      value: 0
      objectReference: {fileID: 0}
    - target: {fileID: 5900813902151451995, guid: 9d68dbd8f32197241aed06270e7de7b8, type: 3}
      propertyPath: m_LocalRotation.y
      value: 0
      objectReference: {fileID: 0}
    - target: {fileID: 5900813902151451995, guid: 9d68dbd8f32197241aed06270e7de7b8, type: 3}
      propertyPath: m_LocalRotation.z
      value: 0
      objectReference: {fileID: 0}
    - target: {fileID: 5900813902151451995, guid: 9d68dbd8f32197241aed06270e7de7b8, type: 3}
      propertyPath: m_LocalEulerAnglesHint.x
      value: 0
      objectReference: {fileID: 0}
    - target: {fileID: 5900813902151451995, guid: 9d68dbd8f32197241aed06270e7de7b8, type: 3}
      propertyPath: m_LocalEulerAnglesHint.y
      value: 0
      objectReference: {fileID: 0}
    - target: {fileID: 5900813902151451995, guid: 9d68dbd8f32197241aed06270e7de7b8, type: 3}
      propertyPath: m_LocalEulerAnglesHint.z
      value: 0
      objectReference: {fileID: 0}
    m_RemovedComponents: []
  m_SourcePrefab: {fileID: 100100000, guid: 9d68dbd8f32197241aed06270e7de7b8, type: 3}
--- !u!1001 &8726486756712180440
PrefabInstance:
  m_ObjectHideFlags: 0
  serializedVersion: 2
  m_Modification:
    m_TransformParent: {fileID: 0}
    m_Modifications:
    - target: {fileID: 236412560349737956, guid: 3c653587b3823184e8a3c3b5a825c05f, type: 3}
      propertyPath: m_AnchorMax.y
      value: 0
      objectReference: {fileID: 0}
    - target: {fileID: 236412560349737956, guid: 3c653587b3823184e8a3c3b5a825c05f, type: 3}
      propertyPath: m_AnchorMin.y
      value: 0
      objectReference: {fileID: 0}
    - target: {fileID: 236412560349737956, guid: 3c653587b3823184e8a3c3b5a825c05f, type: 3}
      propertyPath: m_SizeDelta.x
      value: 0
      objectReference: {fileID: 0}
    - target: {fileID: 236412560349737956, guid: 3c653587b3823184e8a3c3b5a825c05f, type: 3}
      propertyPath: m_SizeDelta.y
      value: 0
      objectReference: {fileID: 0}
    - target: {fileID: 236412560349737956, guid: 3c653587b3823184e8a3c3b5a825c05f, type: 3}
      propertyPath: m_AnchoredPosition.x
      value: 0
      objectReference: {fileID: 0}
    - target: {fileID: 236412560349737956, guid: 3c653587b3823184e8a3c3b5a825c05f, type: 3}
      propertyPath: m_AnchoredPosition.y
      value: 0
      objectReference: {fileID: 0}
    - target: {fileID: 317527295215509741, guid: 3c653587b3823184e8a3c3b5a825c05f, type: 3}
      propertyPath: m_AnchorMax.y
      value: 0
      objectReference: {fileID: 0}
    - target: {fileID: 317527295215509741, guid: 3c653587b3823184e8a3c3b5a825c05f, type: 3}
      propertyPath: m_AnchorMin.y
      value: 0
      objectReference: {fileID: 0}
    - target: {fileID: 317527295215509741, guid: 3c653587b3823184e8a3c3b5a825c05f, type: 3}
      propertyPath: m_SizeDelta.x
      value: 0
      objectReference: {fileID: 0}
    - target: {fileID: 317527295215509741, guid: 3c653587b3823184e8a3c3b5a825c05f, type: 3}
      propertyPath: m_AnchoredPosition.x
      value: 0
      objectReference: {fileID: 0}
    - target: {fileID: 317527295215509741, guid: 3c653587b3823184e8a3c3b5a825c05f, type: 3}
      propertyPath: m_AnchoredPosition.y
      value: 0
      objectReference: {fileID: 0}
    - target: {fileID: 971749607153722691, guid: 3c653587b3823184e8a3c3b5a825c05f, type: 3}
      propertyPath: m_AnchorMax.y
      value: 0
      objectReference: {fileID: 0}
    - target: {fileID: 971749607153722691, guid: 3c653587b3823184e8a3c3b5a825c05f, type: 3}
      propertyPath: m_AnchorMin.y
      value: 0
      objectReference: {fileID: 0}
    - target: {fileID: 971749607153722691, guid: 3c653587b3823184e8a3c3b5a825c05f, type: 3}
      propertyPath: m_SizeDelta.x
      value: 0
      objectReference: {fileID: 0}
    - target: {fileID: 971749607153722691, guid: 3c653587b3823184e8a3c3b5a825c05f, type: 3}
      propertyPath: m_AnchoredPosition.x
      value: 0
      objectReference: {fileID: 0}
    - target: {fileID: 971749607153722691, guid: 3c653587b3823184e8a3c3b5a825c05f, type: 3}
      propertyPath: m_AnchoredPosition.y
      value: 0
      objectReference: {fileID: 0}
    - target: {fileID: 1452511731528185469, guid: 3c653587b3823184e8a3c3b5a825c05f, type: 3}
      propertyPath: m_AnchorMax.y
      value: 0
      objectReference: {fileID: 0}
    - target: {fileID: 1452511731528185469, guid: 3c653587b3823184e8a3c3b5a825c05f, type: 3}
      propertyPath: m_AnchorMin.y
      value: 0
      objectReference: {fileID: 0}
    - target: {fileID: 1452511731528185469, guid: 3c653587b3823184e8a3c3b5a825c05f, type: 3}
      propertyPath: m_SizeDelta.x
      value: 0
      objectReference: {fileID: 0}
    - target: {fileID: 1452511731528185469, guid: 3c653587b3823184e8a3c3b5a825c05f, type: 3}
      propertyPath: m_AnchoredPosition.x
      value: 0
      objectReference: {fileID: 0}
    - target: {fileID: 1452511731528185469, guid: 3c653587b3823184e8a3c3b5a825c05f, type: 3}
      propertyPath: m_AnchoredPosition.y
      value: 0
      objectReference: {fileID: 0}
    - target: {fileID: 1573210615845531478, guid: 3c653587b3823184e8a3c3b5a825c05f, type: 3}
      propertyPath: m_AnchorMax.y
      value: 0
      objectReference: {fileID: 0}
    - target: {fileID: 1573210615845531478, guid: 3c653587b3823184e8a3c3b5a825c05f, type: 3}
      propertyPath: m_AnchorMin.y
      value: 0
      objectReference: {fileID: 0}
    - target: {fileID: 1573210615845531478, guid: 3c653587b3823184e8a3c3b5a825c05f, type: 3}
      propertyPath: m_SizeDelta.x
      value: 0
      objectReference: {fileID: 0}
    - target: {fileID: 1573210615845531478, guid: 3c653587b3823184e8a3c3b5a825c05f, type: 3}
      propertyPath: m_AnchoredPosition.x
      value: 0
      objectReference: {fileID: 0}
    - target: {fileID: 1573210615845531478, guid: 3c653587b3823184e8a3c3b5a825c05f, type: 3}
      propertyPath: m_AnchoredPosition.y
      value: 0
      objectReference: {fileID: 0}
    - target: {fileID: 1879097666881773786, guid: 3c653587b3823184e8a3c3b5a825c05f, type: 3}
      propertyPath: m_AnchorMax.y
      value: 0
      objectReference: {fileID: 0}
    - target: {fileID: 1879097666881773786, guid: 3c653587b3823184e8a3c3b5a825c05f, type: 3}
      propertyPath: m_AnchorMin.y
      value: 0
      objectReference: {fileID: 0}
    - target: {fileID: 1879097666881773786, guid: 3c653587b3823184e8a3c3b5a825c05f, type: 3}
      propertyPath: m_SizeDelta.x
      value: 0
      objectReference: {fileID: 0}
    - target: {fileID: 1879097666881773786, guid: 3c653587b3823184e8a3c3b5a825c05f, type: 3}
      propertyPath: m_SizeDelta.y
      value: 0
      objectReference: {fileID: 0}
    - target: {fileID: 1879097666881773786, guid: 3c653587b3823184e8a3c3b5a825c05f, type: 3}
      propertyPath: m_AnchoredPosition.x
      value: 0
      objectReference: {fileID: 0}
    - target: {fileID: 1879097666881773786, guid: 3c653587b3823184e8a3c3b5a825c05f, type: 3}
      propertyPath: m_AnchoredPosition.y
      value: 0
      objectReference: {fileID: 0}
    - target: {fileID: 1991152874981720070, guid: 3c653587b3823184e8a3c3b5a825c05f, type: 3}
      propertyPath: m_AnchorMax.y
      value: 0
      objectReference: {fileID: 0}
    - target: {fileID: 1991152874981720070, guid: 3c653587b3823184e8a3c3b5a825c05f, type: 3}
      propertyPath: m_AnchorMin.y
      value: 0
      objectReference: {fileID: 0}
    - target: {fileID: 1991152874981720070, guid: 3c653587b3823184e8a3c3b5a825c05f, type: 3}
      propertyPath: m_SizeDelta.x
      value: 0
      objectReference: {fileID: 0}
    - target: {fileID: 1991152874981720070, guid: 3c653587b3823184e8a3c3b5a825c05f, type: 3}
      propertyPath: m_AnchoredPosition.x
      value: 0
      objectReference: {fileID: 0}
    - target: {fileID: 1991152874981720070, guid: 3c653587b3823184e8a3c3b5a825c05f, type: 3}
      propertyPath: m_AnchoredPosition.y
      value: 0
      objectReference: {fileID: 0}
    - target: {fileID: 2563807135266581131, guid: 3c653587b3823184e8a3c3b5a825c05f, type: 3}
      propertyPath: m_AnchorMax.y
      value: 0
      objectReference: {fileID: 0}
    - target: {fileID: 2563807135266581131, guid: 3c653587b3823184e8a3c3b5a825c05f, type: 3}
      propertyPath: m_AnchorMin.y
      value: 0
      objectReference: {fileID: 0}
    - target: {fileID: 2563807135266581131, guid: 3c653587b3823184e8a3c3b5a825c05f, type: 3}
      propertyPath: m_SizeDelta.x
      value: 0
      objectReference: {fileID: 0}
    - target: {fileID: 2563807135266581131, guid: 3c653587b3823184e8a3c3b5a825c05f, type: 3}
      propertyPath: m_AnchoredPosition.x
      value: 0
      objectReference: {fileID: 0}
    - target: {fileID: 2563807135266581131, guid: 3c653587b3823184e8a3c3b5a825c05f, type: 3}
      propertyPath: m_AnchoredPosition.y
      value: 0
      objectReference: {fileID: 0}
    - target: {fileID: 2576255430464613972, guid: 3c653587b3823184e8a3c3b5a825c05f, type: 3}
      propertyPath: m_AnchorMax.y
      value: 0
      objectReference: {fileID: 0}
    - target: {fileID: 2576255430464613972, guid: 3c653587b3823184e8a3c3b5a825c05f, type: 3}
      propertyPath: m_AnchorMin.y
      value: 0
      objectReference: {fileID: 0}
    - target: {fileID: 2576255430464613972, guid: 3c653587b3823184e8a3c3b5a825c05f, type: 3}
      propertyPath: m_SizeDelta.x
      value: 0
      objectReference: {fileID: 0}
    - target: {fileID: 2576255430464613972, guid: 3c653587b3823184e8a3c3b5a825c05f, type: 3}
      propertyPath: m_AnchoredPosition.x
      value: 0
      objectReference: {fileID: 0}
    - target: {fileID: 2576255430464613972, guid: 3c653587b3823184e8a3c3b5a825c05f, type: 3}
      propertyPath: m_AnchoredPosition.y
      value: 0
      objectReference: {fileID: 0}
    - target: {fileID: 2623679327407314937, guid: 3c653587b3823184e8a3c3b5a825c05f, type: 3}
      propertyPath: m_AnchorMax.y
      value: 0
      objectReference: {fileID: 0}
    - target: {fileID: 2623679327407314937, guid: 3c653587b3823184e8a3c3b5a825c05f, type: 3}
      propertyPath: m_AnchorMin.y
      value: 0
      objectReference: {fileID: 0}
    - target: {fileID: 2623679327407314937, guid: 3c653587b3823184e8a3c3b5a825c05f, type: 3}
      propertyPath: m_SizeDelta.x
      value: 0
      objectReference: {fileID: 0}
    - target: {fileID: 2623679327407314937, guid: 3c653587b3823184e8a3c3b5a825c05f, type: 3}
      propertyPath: m_AnchoredPosition.x
      value: 0
      objectReference: {fileID: 0}
    - target: {fileID: 2623679327407314937, guid: 3c653587b3823184e8a3c3b5a825c05f, type: 3}
      propertyPath: m_AnchoredPosition.y
      value: 0
      objectReference: {fileID: 0}
    - target: {fileID: 2725923413732702730, guid: 3c653587b3823184e8a3c3b5a825c05f, type: 3}
      propertyPath: m_OnClick.m_PersistentCalls.m_Calls.Array.size
      value: 1
      objectReference: {fileID: 0}
    - target: {fileID: 2725923413732702730, guid: 3c653587b3823184e8a3c3b5a825c05f, type: 3}
      propertyPath: m_OnClick.m_PersistentCalls.m_Calls.Array.data[0].m_Mode
      value: 1
      objectReference: {fileID: 0}
    - target: {fileID: 2725923413732702730, guid: 3c653587b3823184e8a3c3b5a825c05f, type: 3}
      propertyPath: m_OnClick.m_PersistentCalls.m_Calls.Array.data[0].m_Target
      value: 
      objectReference: {fileID: 590873985}
    - target: {fileID: 2725923413732702730, guid: 3c653587b3823184e8a3c3b5a825c05f, type: 3}
      propertyPath: m_OnClick.m_PersistentCalls.m_Calls.Array.data[0].m_CallState
      value: 2
      objectReference: {fileID: 0}
    - target: {fileID: 2725923413732702730, guid: 3c653587b3823184e8a3c3b5a825c05f, type: 3}
      propertyPath: m_OnClick.m_PersistentCalls.m_Calls.Array.data[0].m_MethodName
      value: Clean
      objectReference: {fileID: 0}
    - target: {fileID: 2725923413732702730, guid: 3c653587b3823184e8a3c3b5a825c05f, type: 3}
      propertyPath: m_OnClick.m_PersistentCalls.m_Calls.Array.data[0].m_TargetAssemblyTypeName
      value: Gamesture.UI.ViewForPictures, Assembly-CSharp
      objectReference: {fileID: 0}
    - target: {fileID: 2725923413732702730, guid: 3c653587b3823184e8a3c3b5a825c05f, type: 3}
      propertyPath: m_OnClick.m_PersistentCalls.m_Calls.Array.data[0].m_Arguments.m_ObjectArgumentAssemblyTypeName
      value: UnityEngine.Object, UnityEngine
      objectReference: {fileID: 0}
    - target: {fileID: 3049658865490968926, guid: 3c653587b3823184e8a3c3b5a825c05f, type: 3}
      propertyPath: m_AnchorMax.y
      value: 0
      objectReference: {fileID: 0}
    - target: {fileID: 3049658865490968926, guid: 3c653587b3823184e8a3c3b5a825c05f, type: 3}
      propertyPath: m_AnchorMin.y
      value: 0
      objectReference: {fileID: 0}
    - target: {fileID: 3049658865490968926, guid: 3c653587b3823184e8a3c3b5a825c05f, type: 3}
      propertyPath: m_SizeDelta.x
      value: 0
      objectReference: {fileID: 0}
    - target: {fileID: 3049658865490968926, guid: 3c653587b3823184e8a3c3b5a825c05f, type: 3}
      propertyPath: m_SizeDelta.y
      value: 0
      objectReference: {fileID: 0}
    - target: {fileID: 3049658865490968926, guid: 3c653587b3823184e8a3c3b5a825c05f, type: 3}
      propertyPath: m_AnchoredPosition.x
      value: 0
      objectReference: {fileID: 0}
    - target: {fileID: 3049658865490968926, guid: 3c653587b3823184e8a3c3b5a825c05f, type: 3}
      propertyPath: m_AnchoredPosition.y
      value: 0
      objectReference: {fileID: 0}
    - target: {fileID: 3313255471662528755, guid: 3c653587b3823184e8a3c3b5a825c05f, type: 3}
      propertyPath: m_AnchorMax.y
      value: 0
      objectReference: {fileID: 0}
    - target: {fileID: 3313255471662528755, guid: 3c653587b3823184e8a3c3b5a825c05f, type: 3}
      propertyPath: m_AnchorMin.y
      value: 0
      objectReference: {fileID: 0}
    - target: {fileID: 3313255471662528755, guid: 3c653587b3823184e8a3c3b5a825c05f, type: 3}
      propertyPath: m_SizeDelta.x
      value: 0
      objectReference: {fileID: 0}
    - target: {fileID: 3313255471662528755, guid: 3c653587b3823184e8a3c3b5a825c05f, type: 3}
      propertyPath: m_SizeDelta.y
      value: 0
      objectReference: {fileID: 0}
    - target: {fileID: 3313255471662528755, guid: 3c653587b3823184e8a3c3b5a825c05f, type: 3}
      propertyPath: m_AnchoredPosition.x
      value: 0
      objectReference: {fileID: 0}
    - target: {fileID: 3313255471662528755, guid: 3c653587b3823184e8a3c3b5a825c05f, type: 3}
      propertyPath: m_AnchoredPosition.y
      value: 0
      objectReference: {fileID: 0}
    - target: {fileID: 3614498092247295280, guid: 3c653587b3823184e8a3c3b5a825c05f, type: 3}
      propertyPath: m_AnchorMax.y
      value: 0
      objectReference: {fileID: 0}
    - target: {fileID: 3614498092247295280, guid: 3c653587b3823184e8a3c3b5a825c05f, type: 3}
      propertyPath: m_AnchorMin.y
      value: 0
      objectReference: {fileID: 0}
    - target: {fileID: 3614498092247295280, guid: 3c653587b3823184e8a3c3b5a825c05f, type: 3}
      propertyPath: m_SizeDelta.x
      value: 0
      objectReference: {fileID: 0}
    - target: {fileID: 3614498092247295280, guid: 3c653587b3823184e8a3c3b5a825c05f, type: 3}
      propertyPath: m_AnchoredPosition.x
      value: 0
      objectReference: {fileID: 0}
    - target: {fileID: 3614498092247295280, guid: 3c653587b3823184e8a3c3b5a825c05f, type: 3}
      propertyPath: m_AnchoredPosition.y
      value: 0
      objectReference: {fileID: 0}
    - target: {fileID: 3616506095872059669, guid: 3c653587b3823184e8a3c3b5a825c05f, type: 3}
      propertyPath: m_AnchorMax.y
      value: 0
      objectReference: {fileID: 0}
    - target: {fileID: 3616506095872059669, guid: 3c653587b3823184e8a3c3b5a825c05f, type: 3}
      propertyPath: m_AnchorMin.y
      value: 0
      objectReference: {fileID: 0}
    - target: {fileID: 3616506095872059669, guid: 3c653587b3823184e8a3c3b5a825c05f, type: 3}
      propertyPath: m_SizeDelta.x
      value: 0
      objectReference: {fileID: 0}
    - target: {fileID: 3616506095872059669, guid: 3c653587b3823184e8a3c3b5a825c05f, type: 3}
      propertyPath: m_AnchoredPosition.x
      value: 0
      objectReference: {fileID: 0}
    - target: {fileID: 3616506095872059669, guid: 3c653587b3823184e8a3c3b5a825c05f, type: 3}
      propertyPath: m_AnchoredPosition.y
      value: 0
      objectReference: {fileID: 0}
    - target: {fileID: 4326789104058433458, guid: 3c653587b3823184e8a3c3b5a825c05f, type: 3}
      propertyPath: m_AnchorMax.y
      value: 0
      objectReference: {fileID: 0}
    - target: {fileID: 4326789104058433458, guid: 3c653587b3823184e8a3c3b5a825c05f, type: 3}
      propertyPath: m_AnchorMin.y
      value: 0
      objectReference: {fileID: 0}
    - target: {fileID: 4326789104058433458, guid: 3c653587b3823184e8a3c3b5a825c05f, type: 3}
      propertyPath: m_SizeDelta.x
      value: 0
      objectReference: {fileID: 0}
    - target: {fileID: 4326789104058433458, guid: 3c653587b3823184e8a3c3b5a825c05f, type: 3}
      propertyPath: m_SizeDelta.y
      value: 0
      objectReference: {fileID: 0}
    - target: {fileID: 4326789104058433458, guid: 3c653587b3823184e8a3c3b5a825c05f, type: 3}
      propertyPath: m_AnchoredPosition.x
      value: 0
      objectReference: {fileID: 0}
    - target: {fileID: 4326789104058433458, guid: 3c653587b3823184e8a3c3b5a825c05f, type: 3}
      propertyPath: m_AnchoredPosition.y
      value: 0
      objectReference: {fileID: 0}
    - target: {fileID: 4349793998675249760, guid: 3c653587b3823184e8a3c3b5a825c05f, type: 3}
      propertyPath: m_AnchorMax.y
      value: 0
      objectReference: {fileID: 0}
    - target: {fileID: 4349793998675249760, guid: 3c653587b3823184e8a3c3b5a825c05f, type: 3}
      propertyPath: m_AnchorMin.y
      value: 0
      objectReference: {fileID: 0}
    - target: {fileID: 4349793998675249760, guid: 3c653587b3823184e8a3c3b5a825c05f, type: 3}
      propertyPath: m_SizeDelta.x
      value: 0
      objectReference: {fileID: 0}
    - target: {fileID: 4349793998675249760, guid: 3c653587b3823184e8a3c3b5a825c05f, type: 3}
      propertyPath: m_AnchoredPosition.x
      value: 0
      objectReference: {fileID: 0}
    - target: {fileID: 4349793998675249760, guid: 3c653587b3823184e8a3c3b5a825c05f, type: 3}
      propertyPath: m_AnchoredPosition.y
      value: 0
      objectReference: {fileID: 0}
    - target: {fileID: 4852357384858659419, guid: 3c653587b3823184e8a3c3b5a825c05f, type: 3}
      propertyPath: m_AnchorMax.y
      value: 0
      objectReference: {fileID: 0}
    - target: {fileID: 4852357384858659419, guid: 3c653587b3823184e8a3c3b5a825c05f, type: 3}
      propertyPath: m_AnchorMin.y
      value: 0
      objectReference: {fileID: 0}
    - target: {fileID: 4852357384858659419, guid: 3c653587b3823184e8a3c3b5a825c05f, type: 3}
      propertyPath: m_SizeDelta.x
      value: 0
      objectReference: {fileID: 0}
    - target: {fileID: 4852357384858659419, guid: 3c653587b3823184e8a3c3b5a825c05f, type: 3}
      propertyPath: m_AnchoredPosition.x
      value: 0
      objectReference: {fileID: 0}
    - target: {fileID: 4852357384858659419, guid: 3c653587b3823184e8a3c3b5a825c05f, type: 3}
      propertyPath: m_AnchoredPosition.y
      value: 0
      objectReference: {fileID: 0}
    - target: {fileID: 4927882204434564218, guid: 3c653587b3823184e8a3c3b5a825c05f, type: 3}
      propertyPath: m_AnchorMax.y
      value: 0
      objectReference: {fileID: 0}
    - target: {fileID: 4927882204434564218, guid: 3c653587b3823184e8a3c3b5a825c05f, type: 3}
      propertyPath: m_AnchorMin.y
      value: 0
      objectReference: {fileID: 0}
    - target: {fileID: 4927882204434564218, guid: 3c653587b3823184e8a3c3b5a825c05f, type: 3}
      propertyPath: m_SizeDelta.x
      value: 0
      objectReference: {fileID: 0}
    - target: {fileID: 4927882204434564218, guid: 3c653587b3823184e8a3c3b5a825c05f, type: 3}
      propertyPath: m_AnchoredPosition.x
      value: 0
      objectReference: {fileID: 0}
    - target: {fileID: 4927882204434564218, guid: 3c653587b3823184e8a3c3b5a825c05f, type: 3}
      propertyPath: m_AnchoredPosition.y
      value: 0
      objectReference: {fileID: 0}
    - target: {fileID: 4971575474617308150, guid: 3c653587b3823184e8a3c3b5a825c05f, type: 3}
      propertyPath: m_AnchorMax.y
      value: 0
      objectReference: {fileID: 0}
    - target: {fileID: 4971575474617308150, guid: 3c653587b3823184e8a3c3b5a825c05f, type: 3}
      propertyPath: m_AnchorMin.y
      value: 0
      objectReference: {fileID: 0}
    - target: {fileID: 4971575474617308150, guid: 3c653587b3823184e8a3c3b5a825c05f, type: 3}
      propertyPath: m_SizeDelta.x
      value: 0
      objectReference: {fileID: 0}
    - target: {fileID: 4971575474617308150, guid: 3c653587b3823184e8a3c3b5a825c05f, type: 3}
      propertyPath: m_AnchoredPosition.x
      value: 0
      objectReference: {fileID: 0}
    - target: {fileID: 4971575474617308150, guid: 3c653587b3823184e8a3c3b5a825c05f, type: 3}
      propertyPath: m_AnchoredPosition.y
      value: 0
      objectReference: {fileID: 0}
    - target: {fileID: 5515334744663611647, guid: 3c653587b3823184e8a3c3b5a825c05f, type: 3}
      propertyPath: m_AnchorMax.y
      value: 0
      objectReference: {fileID: 0}
    - target: {fileID: 5515334744663611647, guid: 3c653587b3823184e8a3c3b5a825c05f, type: 3}
      propertyPath: m_AnchorMin.y
      value: 0
      objectReference: {fileID: 0}
    - target: {fileID: 5515334744663611647, guid: 3c653587b3823184e8a3c3b5a825c05f, type: 3}
      propertyPath: m_SizeDelta.x
      value: 0
      objectReference: {fileID: 0}
    - target: {fileID: 5515334744663611647, guid: 3c653587b3823184e8a3c3b5a825c05f, type: 3}
      propertyPath: m_AnchoredPosition.x
      value: 0
      objectReference: {fileID: 0}
    - target: {fileID: 5515334744663611647, guid: 3c653587b3823184e8a3c3b5a825c05f, type: 3}
      propertyPath: m_AnchoredPosition.y
      value: 0
      objectReference: {fileID: 0}
    - target: {fileID: 5955960879458610458, guid: 3c653587b3823184e8a3c3b5a825c05f, type: 3}
      propertyPath: m_AnchorMax.y
      value: 0
      objectReference: {fileID: 0}
    - target: {fileID: 5955960879458610458, guid: 3c653587b3823184e8a3c3b5a825c05f, type: 3}
      propertyPath: m_AnchorMin.y
      value: 0
      objectReference: {fileID: 0}
    - target: {fileID: 5955960879458610458, guid: 3c653587b3823184e8a3c3b5a825c05f, type: 3}
      propertyPath: m_SizeDelta.x
      value: 0
      objectReference: {fileID: 0}
    - target: {fileID: 5955960879458610458, guid: 3c653587b3823184e8a3c3b5a825c05f, type: 3}
      propertyPath: m_AnchoredPosition.x
      value: 0
      objectReference: {fileID: 0}
    - target: {fileID: 5955960879458610458, guid: 3c653587b3823184e8a3c3b5a825c05f, type: 3}
      propertyPath: m_AnchoredPosition.y
      value: 0
      objectReference: {fileID: 0}
    - target: {fileID: 5976724762146379976, guid: 3c653587b3823184e8a3c3b5a825c05f, type: 3}
      propertyPath: m_AnchorMax.y
      value: 0
      objectReference: {fileID: 0}
    - target: {fileID: 5976724762146379976, guid: 3c653587b3823184e8a3c3b5a825c05f, type: 3}
      propertyPath: m_AnchorMin.y
      value: 0
      objectReference: {fileID: 0}
    - target: {fileID: 5976724762146379976, guid: 3c653587b3823184e8a3c3b5a825c05f, type: 3}
      propertyPath: m_SizeDelta.x
      value: 0
      objectReference: {fileID: 0}
    - target: {fileID: 5976724762146379976, guid: 3c653587b3823184e8a3c3b5a825c05f, type: 3}
      propertyPath: m_SizeDelta.y
      value: 0
      objectReference: {fileID: 0}
    - target: {fileID: 5976724762146379976, guid: 3c653587b3823184e8a3c3b5a825c05f, type: 3}
      propertyPath: m_AnchoredPosition.x
      value: 0
      objectReference: {fileID: 0}
    - target: {fileID: 5976724762146379976, guid: 3c653587b3823184e8a3c3b5a825c05f, type: 3}
      propertyPath: m_AnchoredPosition.y
      value: 0
      objectReference: {fileID: 0}
    - target: {fileID: 6187494114588462017, guid: 3c653587b3823184e8a3c3b5a825c05f, type: 3}
      propertyPath: m_AnchorMax.y
      value: 0
      objectReference: {fileID: 0}
    - target: {fileID: 6187494114588462017, guid: 3c653587b3823184e8a3c3b5a825c05f, type: 3}
      propertyPath: m_AnchorMin.y
      value: 0
      objectReference: {fileID: 0}
    - target: {fileID: 6187494114588462017, guid: 3c653587b3823184e8a3c3b5a825c05f, type: 3}
      propertyPath: m_SizeDelta.x
      value: 0
      objectReference: {fileID: 0}
    - target: {fileID: 6187494114588462017, guid: 3c653587b3823184e8a3c3b5a825c05f, type: 3}
      propertyPath: m_AnchoredPosition.x
      value: 0
      objectReference: {fileID: 0}
    - target: {fileID: 6187494114588462017, guid: 3c653587b3823184e8a3c3b5a825c05f, type: 3}
      propertyPath: m_AnchoredPosition.y
      value: 0
      objectReference: {fileID: 0}
    - target: {fileID: 6686202120369589871, guid: 3c653587b3823184e8a3c3b5a825c05f, type: 3}
      propertyPath: m_AnchorMax.y
      value: 0
      objectReference: {fileID: 0}
    - target: {fileID: 6686202120369589871, guid: 3c653587b3823184e8a3c3b5a825c05f, type: 3}
      propertyPath: m_AnchorMin.y
      value: 0
      objectReference: {fileID: 0}
    - target: {fileID: 6686202120369589871, guid: 3c653587b3823184e8a3c3b5a825c05f, type: 3}
      propertyPath: m_SizeDelta.x
      value: 0
      objectReference: {fileID: 0}
    - target: {fileID: 6686202120369589871, guid: 3c653587b3823184e8a3c3b5a825c05f, type: 3}
      propertyPath: m_AnchoredPosition.x
      value: 0
      objectReference: {fileID: 0}
    - target: {fileID: 6686202120369589871, guid: 3c653587b3823184e8a3c3b5a825c05f, type: 3}
      propertyPath: m_AnchoredPosition.y
      value: 0
      objectReference: {fileID: 0}
    - target: {fileID: 6716934565943596868, guid: 3c653587b3823184e8a3c3b5a825c05f, type: 3}
      propertyPath: m_AnchorMax.y
      value: 0
      objectReference: {fileID: 0}
    - target: {fileID: 6716934565943596868, guid: 3c653587b3823184e8a3c3b5a825c05f, type: 3}
      propertyPath: m_AnchorMin.y
      value: 0
      objectReference: {fileID: 0}
    - target: {fileID: 6716934565943596868, guid: 3c653587b3823184e8a3c3b5a825c05f, type: 3}
      propertyPath: m_SizeDelta.x
      value: 0
      objectReference: {fileID: 0}
    - target: {fileID: 6716934565943596868, guid: 3c653587b3823184e8a3c3b5a825c05f, type: 3}
      propertyPath: m_AnchoredPosition.x
      value: 0
      objectReference: {fileID: 0}
    - target: {fileID: 6716934565943596868, guid: 3c653587b3823184e8a3c3b5a825c05f, type: 3}
      propertyPath: m_AnchoredPosition.y
      value: 0
      objectReference: {fileID: 0}
    - target: {fileID: 7063473350006681914, guid: 3c653587b3823184e8a3c3b5a825c05f, type: 3}
      propertyPath: m_RootOrder
      value: 1
      objectReference: {fileID: 0}
    - target: {fileID: 7063473350006681914, guid: 3c653587b3823184e8a3c3b5a825c05f, type: 3}
      propertyPath: m_LocalPosition.x
      value: -59.27966
      objectReference: {fileID: 0}
    - target: {fileID: 7063473350006681914, guid: 3c653587b3823184e8a3c3b5a825c05f, type: 3}
      propertyPath: m_LocalPosition.y
      value: -141.89001
      objectReference: {fileID: 0}
    - target: {fileID: 7063473350006681914, guid: 3c653587b3823184e8a3c3b5a825c05f, type: 3}
      propertyPath: m_LocalPosition.z
      value: -474.70596
      objectReference: {fileID: 0}
    - target: {fileID: 7063473350006681914, guid: 3c653587b3823184e8a3c3b5a825c05f, type: 3}
      propertyPath: m_LocalRotation.w
      value: 1
      objectReference: {fileID: 0}
    - target: {fileID: 7063473350006681914, guid: 3c653587b3823184e8a3c3b5a825c05f, type: 3}
      propertyPath: m_LocalRotation.x
      value: 0
      objectReference: {fileID: 0}
    - target: {fileID: 7063473350006681914, guid: 3c653587b3823184e8a3c3b5a825c05f, type: 3}
      propertyPath: m_LocalRotation.y
      value: 0
      objectReference: {fileID: 0}
    - target: {fileID: 7063473350006681914, guid: 3c653587b3823184e8a3c3b5a825c05f, type: 3}
      propertyPath: m_LocalRotation.z
      value: 0
      objectReference: {fileID: 0}
    - target: {fileID: 7063473350006681914, guid: 3c653587b3823184e8a3c3b5a825c05f, type: 3}
      propertyPath: m_LocalEulerAnglesHint.x
      value: 0
      objectReference: {fileID: 0}
    - target: {fileID: 7063473350006681914, guid: 3c653587b3823184e8a3c3b5a825c05f, type: 3}
      propertyPath: m_LocalEulerAnglesHint.y
      value: 0
      objectReference: {fileID: 0}
    - target: {fileID: 7063473350006681914, guid: 3c653587b3823184e8a3c3b5a825c05f, type: 3}
      propertyPath: m_LocalEulerAnglesHint.z
      value: 0
      objectReference: {fileID: 0}
    - target: {fileID: 7464308218345352057, guid: 3c653587b3823184e8a3c3b5a825c05f, type: 3}
      propertyPath: m_SizeDelta.y
      value: 0
      objectReference: {fileID: 0}
    - target: {fileID: 7679293918477109143, guid: 3c653587b3823184e8a3c3b5a825c05f, type: 3}
      propertyPath: m_AnchorMax.y
      value: 0
      objectReference: {fileID: 0}
    - target: {fileID: 7679293918477109143, guid: 3c653587b3823184e8a3c3b5a825c05f, type: 3}
      propertyPath: m_AnchorMin.y
      value: 0
      objectReference: {fileID: 0}
    - target: {fileID: 7679293918477109143, guid: 3c653587b3823184e8a3c3b5a825c05f, type: 3}
      propertyPath: m_SizeDelta.x
      value: 0
      objectReference: {fileID: 0}
    - target: {fileID: 7679293918477109143, guid: 3c653587b3823184e8a3c3b5a825c05f, type: 3}
      propertyPath: m_AnchoredPosition.x
      value: 0
      objectReference: {fileID: 0}
    - target: {fileID: 7679293918477109143, guid: 3c653587b3823184e8a3c3b5a825c05f, type: 3}
      propertyPath: m_AnchoredPosition.y
      value: 0
      objectReference: {fileID: 0}
    - target: {fileID: 7701069004245094253, guid: 3c653587b3823184e8a3c3b5a825c05f, type: 3}
      propertyPath: m_AnchorMax.y
      value: 0
      objectReference: {fileID: 0}
    - target: {fileID: 7701069004245094253, guid: 3c653587b3823184e8a3c3b5a825c05f, type: 3}
      propertyPath: m_AnchorMin.y
      value: 0
      objectReference: {fileID: 0}
    - target: {fileID: 7701069004245094253, guid: 3c653587b3823184e8a3c3b5a825c05f, type: 3}
      propertyPath: m_SizeDelta.x
      value: 0
      objectReference: {fileID: 0}
    - target: {fileID: 7701069004245094253, guid: 3c653587b3823184e8a3c3b5a825c05f, type: 3}
      propertyPath: m_AnchoredPosition.x
      value: 0
      objectReference: {fileID: 0}
    - target: {fileID: 7701069004245094253, guid: 3c653587b3823184e8a3c3b5a825c05f, type: 3}
      propertyPath: m_AnchoredPosition.y
      value: 0
      objectReference: {fileID: 0}
    - target: {fileID: 7887542020752373440, guid: 3c653587b3823184e8a3c3b5a825c05f, type: 3}
      propertyPath: m_AnchorMax.y
      value: 0
      objectReference: {fileID: 0}
    - target: {fileID: 7887542020752373440, guid: 3c653587b3823184e8a3c3b5a825c05f, type: 3}
      propertyPath: m_AnchorMin.y
      value: 0
      objectReference: {fileID: 0}
    - target: {fileID: 7887542020752373440, guid: 3c653587b3823184e8a3c3b5a825c05f, type: 3}
      propertyPath: m_SizeDelta.x
      value: 0
      objectReference: {fileID: 0}
    - target: {fileID: 7887542020752373440, guid: 3c653587b3823184e8a3c3b5a825c05f, type: 3}
      propertyPath: m_AnchoredPosition.x
      value: 0
      objectReference: {fileID: 0}
    - target: {fileID: 7887542020752373440, guid: 3c653587b3823184e8a3c3b5a825c05f, type: 3}
      propertyPath: m_AnchoredPosition.y
      value: 0
      objectReference: {fileID: 0}
    - target: {fileID: 7920673828629913932, guid: 3c653587b3823184e8a3c3b5a825c05f, type: 3}
      propertyPath: m_AnchorMax.y
      value: 0
      objectReference: {fileID: 0}
    - target: {fileID: 7920673828629913932, guid: 3c653587b3823184e8a3c3b5a825c05f, type: 3}
      propertyPath: m_AnchorMin.y
      value: 0
      objectReference: {fileID: 0}
    - target: {fileID: 7920673828629913932, guid: 3c653587b3823184e8a3c3b5a825c05f, type: 3}
      propertyPath: m_SizeDelta.x
      value: 0
      objectReference: {fileID: 0}
    - target: {fileID: 7920673828629913932, guid: 3c653587b3823184e8a3c3b5a825c05f, type: 3}
      propertyPath: m_AnchoredPosition.x
      value: 0
      objectReference: {fileID: 0}
    - target: {fileID: 7920673828629913932, guid: 3c653587b3823184e8a3c3b5a825c05f, type: 3}
      propertyPath: m_AnchoredPosition.y
      value: 0
      objectReference: {fileID: 0}
    - target: {fileID: 8412689222048084594, guid: 3c653587b3823184e8a3c3b5a825c05f, type: 3}
      propertyPath: m_AnchorMax.y
      value: 0
      objectReference: {fileID: 0}
    - target: {fileID: 8412689222048084594, guid: 3c653587b3823184e8a3c3b5a825c05f, type: 3}
      propertyPath: m_AnchorMin.y
      value: 0
      objectReference: {fileID: 0}
    - target: {fileID: 8412689222048084594, guid: 3c653587b3823184e8a3c3b5a825c05f, type: 3}
      propertyPath: m_SizeDelta.x
      value: 0
      objectReference: {fileID: 0}
    - target: {fileID: 8412689222048084594, guid: 3c653587b3823184e8a3c3b5a825c05f, type: 3}
      propertyPath: m_AnchoredPosition.x
      value: 0
      objectReference: {fileID: 0}
    - target: {fileID: 8412689222048084594, guid: 3c653587b3823184e8a3c3b5a825c05f, type: 3}
      propertyPath: m_AnchoredPosition.y
      value: 0
      objectReference: {fileID: 0}
    - target: {fileID: 8434674635280650926, guid: 3c653587b3823184e8a3c3b5a825c05f, type: 3}
      propertyPath: m_AnchorMax.y
      value: 0
      objectReference: {fileID: 0}
    - target: {fileID: 8434674635280650926, guid: 3c653587b3823184e8a3c3b5a825c05f, type: 3}
      propertyPath: m_AnchorMin.y
      value: 0
      objectReference: {fileID: 0}
    - target: {fileID: 8434674635280650926, guid: 3c653587b3823184e8a3c3b5a825c05f, type: 3}
      propertyPath: m_SizeDelta.x
      value: 0
      objectReference: {fileID: 0}
    - target: {fileID: 8434674635280650926, guid: 3c653587b3823184e8a3c3b5a825c05f, type: 3}
      propertyPath: m_SizeDelta.y
      value: 0
      objectReference: {fileID: 0}
    - target: {fileID: 8434674635280650926, guid: 3c653587b3823184e8a3c3b5a825c05f, type: 3}
      propertyPath: m_AnchoredPosition.x
      value: 0
      objectReference: {fileID: 0}
    - target: {fileID: 8434674635280650926, guid: 3c653587b3823184e8a3c3b5a825c05f, type: 3}
      propertyPath: m_AnchoredPosition.y
      value: 0
      objectReference: {fileID: 0}
    - target: {fileID: 8876431025818978348, guid: 3c653587b3823184e8a3c3b5a825c05f, type: 3}
      propertyPath: m_AnchorMax.y
      value: 0
      objectReference: {fileID: 0}
    - target: {fileID: 8876431025818978348, guid: 3c653587b3823184e8a3c3b5a825c05f, type: 3}
      propertyPath: m_AnchorMin.y
      value: 0
      objectReference: {fileID: 0}
    - target: {fileID: 8876431025818978348, guid: 3c653587b3823184e8a3c3b5a825c05f, type: 3}
      propertyPath: m_SizeDelta.x
      value: 0
      objectReference: {fileID: 0}
    - target: {fileID: 8876431025818978348, guid: 3c653587b3823184e8a3c3b5a825c05f, type: 3}
      propertyPath: m_AnchoredPosition.x
      value: 0
      objectReference: {fileID: 0}
    - target: {fileID: 8876431025818978348, guid: 3c653587b3823184e8a3c3b5a825c05f, type: 3}
      propertyPath: m_AnchoredPosition.y
      value: 0
      objectReference: {fileID: 0}
    - target: {fileID: 8878359591624459273, guid: 3c653587b3823184e8a3c3b5a825c05f, type: 3}
      propertyPath: m_AnchorMax.y
      value: 0
      objectReference: {fileID: 0}
    - target: {fileID: 8878359591624459273, guid: 3c653587b3823184e8a3c3b5a825c05f, type: 3}
      propertyPath: m_AnchorMin.y
      value: 0
      objectReference: {fileID: 0}
    - target: {fileID: 8878359591624459273, guid: 3c653587b3823184e8a3c3b5a825c05f, type: 3}
      propertyPath: m_SizeDelta.x
      value: 0
      objectReference: {fileID: 0}
    - target: {fileID: 8878359591624459273, guid: 3c653587b3823184e8a3c3b5a825c05f, type: 3}
      propertyPath: m_AnchoredPosition.x
      value: 0
      objectReference: {fileID: 0}
    - target: {fileID: 8878359591624459273, guid: 3c653587b3823184e8a3c3b5a825c05f, type: 3}
      propertyPath: m_AnchoredPosition.y
      value: 0
      objectReference: {fileID: 0}
    - target: {fileID: 8890825474563621078, guid: 3c653587b3823184e8a3c3b5a825c05f, type: 3}
      propertyPath: m_AnchorMax.y
      value: 0
      objectReference: {fileID: 0}
    - target: {fileID: 8890825474563621078, guid: 3c653587b3823184e8a3c3b5a825c05f, type: 3}
      propertyPath: m_AnchorMin.y
      value: 0
      objectReference: {fileID: 0}
    - target: {fileID: 8890825474563621078, guid: 3c653587b3823184e8a3c3b5a825c05f, type: 3}
      propertyPath: m_SizeDelta.x
      value: 0
      objectReference: {fileID: 0}
    - target: {fileID: 8890825474563621078, guid: 3c653587b3823184e8a3c3b5a825c05f, type: 3}
      propertyPath: m_AnchoredPosition.x
      value: 0
      objectReference: {fileID: 0}
    - target: {fileID: 8890825474563621078, guid: 3c653587b3823184e8a3c3b5a825c05f, type: 3}
      propertyPath: m_AnchoredPosition.y
      value: 0
      objectReference: {fileID: 0}
    - target: {fileID: 8928424725526100736, guid: 3c653587b3823184e8a3c3b5a825c05f, type: 3}
      propertyPath: m_Name
      value: MainUI
      objectReference: {fileID: 0}
    - target: {fileID: 8992301358698625403, guid: 3c653587b3823184e8a3c3b5a825c05f, type: 3}
      propertyPath: m_AnchorMax.y
      value: 0
      objectReference: {fileID: 0}
    - target: {fileID: 8992301358698625403, guid: 3c653587b3823184e8a3c3b5a825c05f, type: 3}
      propertyPath: m_AnchorMin.y
      value: 0
      objectReference: {fileID: 0}
    - target: {fileID: 8992301358698625403, guid: 3c653587b3823184e8a3c3b5a825c05f, type: 3}
      propertyPath: m_SizeDelta.x
      value: 0
      objectReference: {fileID: 0}
    - target: {fileID: 8992301358698625403, guid: 3c653587b3823184e8a3c3b5a825c05f, type: 3}
      propertyPath: m_AnchoredPosition.x
      value: 0
      objectReference: {fileID: 0}
    - target: {fileID: 8992301358698625403, guid: 3c653587b3823184e8a3c3b5a825c05f, type: 3}
      propertyPath: m_AnchoredPosition.y
      value: 0
      objectReference: {fileID: 0}
    m_RemovedComponents: []
  m_SourcePrefab: {fileID: 100100000, guid: 3c653587b3823184e8a3c3b5a825c05f, type: 3}
